<?xml version="1.0" encoding="utf-8"?>
<!-- Generator: Adobe Illustrator 22.1.0, SVG Export Plug-In . SVG Version: 6.00 Build 0)  -->
<svg version="1.1"
	 id="svg18" inkscape:version="0.92.4 (5da689c313, 2019-01-14)" sodipodi:docname="РёРіСЂРѕРІС‹Рµ СЃРµСЂРІРёСЃС‹_2.svg" xmlns:cc="http://creativecommons.org/ns#" xmlns:dc="http://purl.org/dc/elements/1.1/" xmlns:inkscape="http://www.inkscape.org/namespaces/inkscape" xmlns:rdf="http://www.w3.org/1999/02/22-rdf-syntax-ns#" xmlns:sodipodi="http://sodipodi.sourceforge.net/DTD/sodipodi-0.dtd" xmlns:svg="http://www.w3.org/2000/svg"
	 xmlns="http://www.w3.org/2000/svg" xmlns:xlink="http://www.w3.org/1999/xlink" x="0px" y="0px" viewBox="0 0 297.6 297.6"
	 style="enable-background:new 0 0 297.6 297.6;" xml:space="preserve">
<style type="text/css">
	.st0{fill:#407093;}
	.st1{fill:#2B4D66;}
	.st2{fill:#DAE7EF;}
	.st3{fill:#C1D5E4;}
	.st4{fill:#F6E266;}
	.st5{fill:#86F1A7;}
	.st6{fill:#DD5790;}
	.st7{fill:#61A2F9;}
</style>
<sodipodi:namedview  bordercolor="#666666" borderopacity="1" fit-margin-bottom="0" fit-margin-left="0" fit-margin-right="0" fit-margin-top="0" gridtolerance="10" guidetolerance="10" id="namedview20" inkscape:current-layer="svg18" inkscape:cx="86.244882" inkscape:cy="242.1899" inkscape:pageopacity="0" inkscape:pageshadow="2" inkscape:window-height="480" inkscape:window-maximized="0" inkscape:window-width="721" inkscape:window-x="0" inkscape:window-y="0" inkscape:zoom="0.29735259" objecttolerance="10" pagecolor="#ffffff" showgrid="false">
	</sodipodi:namedview>
<g>
	<g>
		<path class="st0" d="M293.1,169.8l-32.2-90.2c-7.7-21.6-28.2-36.1-51.2-36.1h-122c-23,0-43.4,14.4-51.2,36.1L4.3,169.8
			c-8.1,22.6-4.6,47.8,9.2,67.4c10.1,14.2,31.1,14.3,41.3,0.1l32-44.6c4-5.5,10.4-8.8,17.2-8.8h89.4c6.8,0,13.2,3.3,17.2,8.8
			l32,44.6c10.2,14.2,31.2,14.1,41.3-0.1C297.7,217.6,301.2,192.4,293.1,169.8z"/>
	</g>
	<g>
		<path class="st1" d="M293.1,169.8l-32.2-90.2c-7.7-21.6-28.2-36.1-51.2-36.1h-50c23,0,43.4,14.4,51.2,36.1l32.2,90.2
			c7.2,20.3,5.2,42.5-5.2,61.1l4.7,6.5c10.2,14.2,31.2,14.1,41.3-0.1C297.7,217.6,301.2,192.4,293.1,169.8z"/>
	</g>
	<g>
		<path class="st2" d="M103.1,81.1H91.6c-0.7,0-1.2-0.5-1.2-1.2V68.4c0-2-1.6-3.6-3.6-3.6H74.3c-2,0-3.6,1.6-3.6,3.6v11.5
			c0,0.7-0.5,1.2-1.2,1.2H58c-2,0-3.6,1.6-3.6,3.6v12.4c0,2,1.6,3.6,3.6,3.6h11.5c0.7,0,1.2,0.5,1.2,1.2v11.5c0,2,1.6,3.6,3.6,3.6
			h12.4c2,0,3.6-1.6,3.6-3.6v-11.5c0-0.7,0.5-1.2,1.2-1.2h11.5c2,0,3.6-1.6,3.6-3.6V84.7C106.7,82.7,105.1,81.1,103.1,81.1
			L103.1,81.1z"/>
	</g>
	<g>
		<g>
			<path class="st3" d="M103.1,81.1h-4.2v8.1c0,2-1.6,3.6-3.6,3.6h-8.5c-2.3,0-4.2,1.9-4.2,4.2v8.5c0,2-1.6,3.6-3.6,3.6h-8.1v4.2
				c0,2,1.6,3.6,3.6,3.6h12.4c2,0,3.6-1.6,3.6-3.6v-11.5c0-0.7,0.5-1.2,1.2-1.2h11.5c2,0,3.6-1.6,3.6-3.6V84.7
				C106.7,82.7,105.1,81.1,103.1,81.1L103.1,81.1z"/>
		</g>
	</g>
	<g>
		<circle class="st2" cx="182.3" cy="144" r="22"/>
	</g>
	<g>
		<circle class="st2" cx="115.1" cy="144" r="22"/>
	</g>
	<g>
		<path class="st3" d="M187.8,122.7c0.4,1.7,0.7,3.6,0.7,5.4c0,12.1-9.8,22-22,22c-1.9,0-3.7-0.2-5.4-0.7c2.4,9.5,11,16.5,21.3,16.5
			c12.1,0,22-9.8,22-22C204.3,133.8,197.3,125.1,187.8,122.7L187.8,122.7z"/>
	</g>
	<g>
		<path class="st3" d="M120.5,122.7c0.4,1.7,0.7,3.6,0.7,5.4c0,12.1-9.8,22-22,22c-1.9,0-3.7-0.2-5.4-0.7c2.4,9.5,11,16.5,21.3,16.5
			c12.1,0,22-9.8,22-22C137.1,133.8,130.1,125.1,120.5,122.7L120.5,122.7z"/>
	</g>
	<circle class="st2" cx="148.8" cy="85.6" r="13.1"/>
	<path class="st3" d="M153.9,73.6c0.7,1.6,1,3.3,1,5.1c0,7.2-5.8,13.1-13.1,13.1c-1.8,0-3.6-0.4-5.1-1c2,4.7,6.6,7.9,12,7.9
		c7.2,0,13.1-5.8,13.1-13.1C161.9,80.2,158.6,75.5,153.9,73.6L153.9,73.6z"/>
	<g>
		<path class="st4" d="M216.6,67.4c-4.1,0-7.3,3.3-7.3,7.3c0,4.1,3.3,7.3,7.3,7.3c4.1,0,7.3-3.3,7.3-7.3
			C223.9,70.6,220.7,67.4,216.6,67.4z"/>
		<path class="st5" d="M216.6,114.6c4.1,0,7.3-3.3,7.3-7.3c0-4.1-3.3-7.3-7.3-7.3s-7.3,3.3-7.3,7.3
			C209.3,111.3,212.6,114.6,216.6,114.6z"/>
		<circle class="st6" cx="232.9" cy="91" r="7.3"/>
		<path class="st7" d="M207.6,91c0-4.1-3.3-7.3-7.3-7.3c-4.1,0-7.3,3.3-7.3,7.3c0,4.1,3.3,7.3,7.3,7.3C204.4,98.3,207.6,95,207.6,91
			z"/>
	</g>
	<g>
		<g>
			<path class="st6" d="M182.3,170.3c-14.5,0-26.3-11.8-26.3-26.3s11.8-26.3,26.3-26.3s26.3,11.8,26.3,26.3
				C208.7,158.5,196.9,170.3,182.3,170.3z M182.3,126.4c-9.7,0-17.6,7.9-17.6,17.6s7.9,17.6,17.6,17.6S200,153.7,200,144
				C200,134.3,192.1,126.4,182.3,126.4z"/>
		</g>
	</g>
	<g>
		<g>
			<path class="st6" d="M115.1,170.3c-14.5,0-26.3-11.8-26.3-26.3c0-14.5,11.8-26.3,26.3-26.3s26.3,11.8,26.3,26.3
				C141.4,158.5,129.6,170.3,115.1,170.3z M115.1,126.4c-9.7,0-17.6,7.9-17.6,17.6s7.9,17.6,17.6,17.6s17.6-7.9,17.6-17.6
				S124.8,126.4,115.1,126.4z"/>
		</g>
	</g>
</g>
</svg>
