<?xml version="1.0" encoding="utf-8"?>
<!-- Generator: Adobe Illustrator 22.1.0, SVG Export Plug-In . SVG Version: 6.00 Build 0)  -->
<svg version="1.1"
	 id="svg16" inkscape:version="0.92.4 (5da689c313, 2019-01-14)" sodipodi:docname="РёРіСЂРѕРІС‹Рµ СЃРµСЂРІРёСЃС‹_1.svg" xmlns:cc="http://creativecommons.org/ns#" xmlns:dc="http://purl.org/dc/elements/1.1/" xmlns:inkscape="http://www.inkscape.org/namespaces/inkscape" xmlns:rdf="http://www.w3.org/1999/02/22-rdf-syntax-ns#" xmlns:sodipodi="http://sodipodi.sourceforge.net/DTD/sodipodi-0.dtd" xmlns:svg="http://www.w3.org/2000/svg"
	 xmlns="http://www.w3.org/2000/svg" xmlns:xlink="http://www.w3.org/1999/xlink" x="0px" y="0px" viewBox="0 0 298.2 298.2"
	 style="enable-background:new 0 0 298.2 298.2;" xml:space="preserve">
<style type="text/css">
	.st0{fill:#1C181B;}
	.st1{fill:#FFFFFF;}
</style>
<sodipodi:namedview  bordercolor="#666666" borderopacity="1" fit-margin-bottom="0" fit-margin-left="0" fit-margin-right="0" fit-margin-top="0" gridtolerance="10" guidetolerance="10" id="namedview18" inkscape:current-layer="svg16" inkscape:cx="198.60516" inkscape:cy="199.14576" inkscape:pageopacity="0" inkscape:pageshadow="2" inkscape:window-height="707" inkscape:window-maximized="0" inkscape:window-width="1118" inkscape:window-x="0" inkscape:window-y="0" inkscape:zoom="0.59470518" objecttolerance="10" pagecolor="#ffffff" showgrid="false">
	</sodipodi:namedview>
<g id="_x40_2x">
	<g id="Wallet">
		<path id="bg" class="st0" d="M69.6,0h159c38.4,0,69.6,31.1,69.6,69.6v159c0,38.4-31.1,69.6-69.6,69.6h-159
			C31.1,298.2,0,267,0,228.6v-159C0,31.1,31.1,0,69.6,0z"/>
	</g>
</g>
<polygon class="st1" points="45.7,174.5 84.5,174.5 84.5,155.1 65.1,155.1 65.1,122.8 84.5,122.8 84.5,103.4 65.1,103.4 65.1,71.1 
	84.5,71.1 84.5,51.7 45.7,51.7 "/>
<rect x="162" y="51.7" class="st1" width="19.4" height="122.8"/>
<path class="st1" d="M116.8,135.7h10.3c14.7,0,22-7.4,22-22.3V75.4c0-15.8-7.8-23.6-23.5-23.6H119H97.4v122.8h19.4L116.8,135.7
	L116.8,135.7z M116.8,71.1h6.5c3.6,0,6.5,2.9,6.5,6.5v32.3c0,3.6-2.9,6.5-6.5,6.5h-6.5V71.1z"/>
<path class="st1" d="M252.5,151.6v-22.3h-19.4v18.3c0,5.2-2.5,7.6-7.7,7.6h-3.8c-5.4,0-7.9-2.4-7.9-7.6v-37.7V85.1v-7.6
	c0-3.6,2.9-6.5,6.5-6.5h6.5c3.6,0,6.5,2.9,6.5,6.5V84V97h19.4V75.1c0-15.8-7.9-23.4-24.1-23.4h-9.7c-16.3,0-24.3,7.8-24.3,23.6v75.6
	c0,15.8,8,23.6,24.3,23.6h9.8C244.6,174.5,252.5,166.9,252.5,151.6z"/>
<polygon class="st1" points="252,232.5 251.9,232 251.8,231.5 251.7,230.9 251.6,230.4 251.5,229.9 251.3,229.5 251.1,229 
	250.8,228.6 250.6,228.1 250.2,227.6 249.9,227.2 249.5,226.8 249.2,226.4 248.7,226 248.3,225.7 247.9,225.4 247.5,225.1 
	247,224.8 246.6,224.5 246.1,224.3 245.5,224 245,223.8 244.5,223.5 243.9,223.3 243.4,223.1 242.9,223 242.4,222.8 241.9,222.7 
	241.4,222.5 240.8,222.3 240.3,222.2 239.7,222.1 239.2,221.9 238.6,221.8 238,221.6 237.4,221.5 236.8,221.3 236.3,221.2 
	235.8,221 235.3,220.9 234.9,220.8 234.5,220.7 233.8,220.5 233.3,220.2 232.7,220 232.3,219.8 231.8,219.5 231.4,219.1 
	231.2,218.8 231,218.2 230.9,217.5 230.9,217.4 231,216.9 231.2,216.4 231.5,215.9 232,215.5 232.3,215.3 232.8,215 233.3,214.9 
	233.8,214.8 234.4,214.7 235,214.7 235.6,214.7 236,214.8 236.6,214.8 237.1,214.9 237.6,215 238.2,215.1 238.7,215.2 239.2,215.4 
	239.8,215.5 240.4,215.7 240.8,215.9 241.3,216.1 241.7,216.3 242.2,216.5 242.6,216.7 243.1,216.9 243.5,217.2 244,217.4 
	244.4,217.7 244.8,218 245.3,218.3 245.7,218.6 246.1,218.1 246.3,217.7 246.7,217.3 247,216.9 247.3,216.4 247.6,216 247.9,215.5 
	248.2,215.1 248.5,214.7 248.8,214.2 249.1,213.8 249.4,213.4 249.7,212.9 250,212.5 250.3,212 250.6,211.6 250.9,211.2 
	250.5,210.9 250.1,210.5 249.7,210.2 249.2,209.9 248.7,209.6 248.3,209.4 247.8,209.1 247.4,208.8 246.9,208.6 246.4,208.3 
	245.9,208.1 245.4,207.9 245,207.7 244.5,207.5 243.9,207.3 243.5,207.2 243,207 242.4,206.9 242,206.8 241.4,206.7 240.9,206.6 
	240.4,206.5 239.9,206.3 239.3,206.3 238.8,206.2 238.2,206.1 237.6,206.1 237,206.1 236.5,206 235.9,206 235.3,206 234.7,206 
	234.2,206 233.6,206.1 233.1,206.1 232.6,206.2 232,206.2 231.5,206.3 231,206.5 230.5,206.6 230,206.7 229.6,206.8 229.1,206.9 
	228.6,207.2 228.1,207.3 227.6,207.5 227.1,207.8 226.6,208 226.1,208.3 225.7,208.5 225.3,208.9 224.9,209.2 224.5,209.5 
	224.1,209.8 223.7,210.3 223.3,210.6 222.9,211.1 222.6,211.5 222.3,211.9 222,212.4 221.8,212.9 221.6,213.4 221.3,213.9 
	221.1,214.3 221,214.8 220.9,215.3 220.8,215.8 220.7,216.3 220.6,216.8 220.5,217.3 220.5,217.8 220.5,218.4 220.5,218.5 
	220.5,219.1 220.5,219.6 220.6,220.2 220.7,220.7 220.8,221.2 220.9,221.7 221,222.2 221.2,222.7 221.3,223.1 221.6,223.5 
	221.8,223.9 222.1,224.4 222.4,224.7 222.7,225.1 223,225.5 223.4,225.9 223.8,226.2 224.1,226.6 224.5,226.8 225,227.2 
	225.5,227.4 225.9,227.7 226.4,228 226.9,228.2 227.4,228.4 228,228.7 228.5,228.9 229.1,229.1 229.6,229.2 230,229.4 230.5,229.6 
	231.1,229.7 231.5,229.8 232.1,230 232.6,230.1 233.2,230.3 233.7,230.4 234.3,230.5 234.8,230.6 235.4,230.8 235.9,230.9 
	236.5,231.1 236.9,231.2 237.4,231.3 237.9,231.5 238.2,231.6 238.9,231.8 239.4,232 239.9,232.3 240.3,232.5 240.7,232.8 
	241.1,233.1 241.4,233.5 241.6,234 241.6,234.7 241.6,234.8 241.6,235.3 241.4,235.8 241.2,236.2 240.9,236.6 240.5,236.9 
	240.1,237.1 239.7,237.3 239.2,237.4 238.7,237.5 238.2,237.6 237.6,237.7 236.9,237.7 236.4,237.7 235.8,237.6 235.3,237.6 
	234.7,237.5 234.2,237.5 233.6,237.4 233.1,237.2 232.6,237.1 232.1,237 231.5,236.8 231,236.7 230.5,236.4 230,236.3 229.6,236.1 
	229.1,235.9 228.6,235.6 228.2,235.4 227.7,235.2 227.3,234.9 226.8,234.6 226.4,234.3 225.9,234 225.5,233.7 225,233.3 224.5,233 
	224.2,233.4 223.9,233.8 223.5,234.2 223.2,234.7 222.8,235 222.5,235.5 222.1,235.9 221.8,236.3 221.4,236.7 221.1,237.1 
	220.8,237.5 220.4,237.9 220.1,238.3 219.7,238.7 219.4,239.2 219,239.6 218.7,240 219.2,240.4 219.5,240.7 220,241 220.4,241.3 
	220.8,241.6 221.2,242 221.7,242.2 222.1,242.5 222.6,242.8 223,243 223.5,243.3 224,243.5 224.4,243.8 224.9,244 225.4,244.2 
	225.9,244.4 226.4,244.6 227,244.8 227.4,245 228,245.1 228.5,245.3 229,245.4 229.5,245.6 230,245.7 230.6,245.8 231.1,245.9 
	231.7,246 232.2,246 232.7,246.1 233.3,246.2 233.8,246.3 234.4,246.3 235,246.3 235.5,246.4 236,246.4 236.6,246.4 237.2,246.4 
	237.7,246.4 238.3,246.3 238.9,246.3 239.4,246.2 239.9,246.1 240.4,246.1 240.9,246 241.4,245.9 241.9,245.8 242.4,245.7 
	242.9,245.5 243.5,245.3 244,245.2 244.5,245 245.1,244.8 245.5,244.5 246,244.3 246.5,244 246.9,243.7 247.4,243.4 247.8,243.1 
	248.1,242.8 248.6,242.4 248.9,242.1 249.3,241.7 249.6,241.3 249.9,240.9 250.2,240.5 250.4,240 250.7,239.6 250.9,239.1 
	251.1,238.7 251.4,238.2 251.5,237.7 251.6,237.2 251.8,236.7 251.9,236.1 251.9,235.5 252,235 252.1,234.4 252.1,233.8 
	252.1,233.7 252.1,233.1 "/>
<polygon class="st1" points="214,236.9 213.5,236.9 212.9,236.9 212.4,236.9 211.9,236.9 211.3,236.9 210.8,236.9 210.3,236.9 
	209.7,236.9 209.1,236.9 208.6,236.9 208.1,236.9 207.5,236.9 207,236.9 206.5,236.9 206,236.9 205.4,236.9 204.9,236.9 
	204.3,236.9 203.8,236.9 203.3,236.9 202.7,236.9 202.2,236.9 201.7,236.9 201.1,236.9 200.6,236.9 200.1,236.9 199.5,236.9 
	198.9,236.9 198.4,236.9 197.9,236.9 197.3,236.9 196.8,236.9 196.3,236.9 195.7,236.9 195.2,236.9 194.7,236.9 194.1,236.9 
	194.1,236.3 194.1,235.7 194.1,235.2 194.1,234.7 194.1,234.1 194.1,233.5 194.1,233 194.1,232.4 194.1,231.9 194.1,231.3 
	194.1,230.8 194.1,230.2 194.7,230.2 195.2,230.2 195.7,230.2 196.3,230.2 196.8,230.2 197.3,230.2 197.9,230.2 198.4,230.2 
	198.9,230.2 199.4,230.2 200,230.2 200.5,230.2 201,230.2 201.6,230.2 202.1,230.2 202.6,230.2 203.2,230.2 203.7,230.2 
	204.2,230.2 204.8,230.2 205.3,230.2 205.8,230.2 206.4,230.2 206.9,230.2 207.4,230.2 208,230.2 208.5,230.2 209,230.2 
	209.5,230.2 210.1,230.2 210.6,230.2 211.1,230.2 211.7,230.2 212.2,230.2 212.7,230.2 212.7,229.7 212.7,229.2 212.7,228.7 
	212.7,228.1 212.7,227.6 212.7,227.1 212.7,226.6 212.7,226 212.7,225.5 212.7,225 212.7,224.5 212.7,224 212.7,223.5 212.7,222.9 
	212.7,222.4 212.7,221.9 212.2,221.9 211.7,221.9 211.1,221.9 210.6,221.9 210.1,221.9 209.5,221.9 209,221.9 208.5,221.9 
	208,221.9 207.4,221.9 206.9,221.9 206.4,221.9 205.8,221.9 205.3,221.9 204.8,221.9 204.2,221.9 203.7,221.9 203.2,221.9 
	202.6,221.9 202.1,221.9 201.6,221.9 201,221.9 200.5,221.9 200,221.9 199.4,221.9 198.9,221.9 198.4,221.9 197.9,221.9 
	197.3,221.9 196.8,221.9 196.3,221.9 195.7,221.9 195.2,221.9 194.7,221.9 194.1,221.9 194.1,221.4 194.1,220.8 194.1,220.3 
	194.1,219.8 194.1,219.2 194.1,218.7 194.1,218.2 194.1,217.7 194.1,217.1 194.1,216.6 194.1,216.1 194.1,215.5 194.7,215.5 
	195.2,215.5 195.7,215.5 196.3,215.5 196.8,215.5 197.3,215.5 197.8,215.5 198.4,215.5 198.9,215.5 199.4,215.5 200,215.5 
	200.5,215.5 201,215.5 201.6,215.5 202.1,215.5 202.6,215.5 203.2,215.5 203.7,215.5 204.2,215.5 204.7,215.5 205.3,215.5 
	205.8,215.5 206.3,215.5 206.9,215.5 207.4,215.5 207.9,215.5 208.5,215.5 209,215.5 209.5,215.5 210.1,215.5 210.6,215.5 
	211.1,215.5 211.6,215.5 212.1,215.5 212.7,215.5 213.2,215.5 213.7,215.5 214.3,215.5 214.8,215.5 214.8,215 214.8,214.5 
	214.8,214 214.8,213.4 214.8,212.9 214.8,212.4 214.8,211.9 214.8,211.3 214.8,210.9 214.8,210.3 214.8,209.8 214.8,209.3 
	214.8,208.8 214.8,208.2 214.8,207.7 214.8,207.2 214.8,206.7 214.3,206.7 213.7,206.7 213.2,206.7 212.7,206.7 212.1,206.7 
	211.6,206.7 211.1,206.7 210.5,206.7 210,206.7 209.5,206.7 208.9,206.7 208.4,206.7 207.9,206.7 207.3,206.7 206.9,206.7 
	206.3,206.7 205.8,206.7 205.3,206.7 204.7,206.7 204.2,206.7 203.6,206.7 203.1,206.7 202.6,206.7 202,206.7 201.5,206.7 
	201,206.7 200.5,206.7 199.9,206.7 199.4,206.7 198.9,206.7 198.3,206.7 197.8,206.7 197.2,206.7 196.7,206.7 196.2,206.7 
	195.6,206.7 195.1,206.7 194.6,206.7 194,206.7 193.5,206.7 193,206.7 192.4,206.7 191.9,206.7 191.4,206.7 190.9,206.7 
	190.4,206.7 189.8,206.7 189.3,206.7 188.8,206.7 188.2,206.7 187.7,206.7 187.2,206.7 186.6,206.7 186.1,206.7 185.5,206.7 
	185,206.7 184.5,206.7 183.9,206.7 183.9,207.2 183.9,207.8 183.9,208.3 183.9,208.8 183.9,209.4 183.9,209.9 183.9,210.4 
	183.9,211 183.9,211.5 183.9,212 183.9,212.6 183.9,213.1 183.9,213.6 183.9,214.2 183.9,214.7 183.9,215.3 183.9,215.8 
	183.9,216.3 183.9,216.8 183.9,217.3 183.9,217.9 183.9,218.4 183.9,219 183.9,219.5 183.9,220 183.9,220.6 183.9,221.1 
	183.9,221.6 183.9,222.2 183.9,222.7 183.9,223.2 183.9,223.8 183.9,224.3 183.9,224.9 183.9,225.4 183.9,225.9 183.9,226.5 
	183.9,227 183.9,227.5 183.9,228.1 183.9,228.6 183.9,229.1 183.9,229.7 183.9,230.2 183.9,230.8 183.9,231.3 183.9,231.8 
	183.9,232.4 183.9,232.9 183.9,233.4 183.9,234 183.9,234.5 183.9,235 183.9,235.6 183.9,236.1 183.9,236.6 183.9,237.1 
	183.9,237.7 183.9,238.2 183.9,238.7 183.9,239.3 183.9,239.8 183.9,240.4 183.9,240.9 183.9,241.4 183.9,242 183.9,242.5 
	183.9,243 183.9,243.6 183.9,244.1 183.9,244.6 183.9,245.2 183.9,245.7 184.5,245.7 185,245.7 185.5,245.7 186.1,245.7 
	186.6,245.7 187.2,245.7 187.7,245.7 188.2,245.7 188.8,245.7 189.3,245.7 189.9,245.7 190.4,245.7 190.9,245.7 191.5,245.7 
	192,245.7 192.5,245.7 193.1,245.7 193.6,245.7 194.1,245.7 194.7,245.7 195.2,245.7 195.7,245.7 196.3,245.7 196.8,245.7 
	197.3,245.7 197.9,245.7 198.4,245.7 198.9,245.7 199.5,245.7 200.1,245.7 200.6,245.7 201.1,245.7 201.7,245.7 202.2,245.7 
	202.7,245.7 203.3,245.7 203.8,245.7 204.3,245.7 204.9,245.7 205.4,245.7 206,245.7 206.5,245.7 207,245.7 207.5,245.7 
	208.1,245.7 208.6,245.7 209.1,245.7 209.7,245.7 210.3,245.7 210.8,245.7 211.3,245.7 211.9,245.7 212.4,245.7 212.9,245.7 
	213.5,245.7 214,245.7 214.5,245.7 215.1,245.7 215.1,245.2 215.1,244.7 215.1,244.2 215.1,243.6 215.1,243.1 215.1,242.6 
	215.1,242.1 215.1,241.5 215.1,241 215.1,240.5 215.1,240 215.1,239.5 215.1,239 215.1,238.4 215.1,237.9 215.1,237.4 215.1,236.9 
	214.5,236.9 "/>
<g>
	<polygon class="st1" points="175,206.7 174.5,206.7 174,206.7 173.4,206.7 172.9,206.7 172.4,206.7 171.9,206.7 171.4,206.7 
		170.8,206.7 170.4,206.7 169.8,206.7 169.3,206.7 168.7,206.7 168.3,206.7 167.7,206.7 167.2,206.7 166.7,206.7 166.2,206.7 
		165.7,206.7 165.1,206.7 164.9,207.1 164.6,207.6 164.3,208 164,208.5 163.7,208.9 163.5,209.4 163.1,209.8 162.9,210.3 
		162.6,210.7 162.3,211.2 162,211.7 161.8,212.1 161.5,212.6 161.2,213 160.9,213.5 160.6,213.9 160.4,214.3 160.1,214.8 
		159.8,215.2 159.5,215.7 159.2,216.1 159,216.6 158.7,217.1 158.4,217.5 158.1,218 157.9,218.4 157.6,218.9 157.3,219.3 157,219.8 
		156.7,220.2 156.5,220.7 156.1,221.1 155.9,221.6 155.6,222 155.3,221.6 155.1,221.1 154.8,220.7 154.5,220.2 154.2,219.8 
		154,219.3 153.7,218.9 153.4,218.4 153.1,218 152.8,217.5 152.6,217.1 152.3,216.6 152,216.1 151.7,215.7 151.4,215.2 151.2,214.8 
		150.9,214.3 150.6,213.9 150.3,213.5 150.1,213 149.8,212.6 149.5,212.1 149.2,211.7 148.9,211.2 148.7,210.7 148.4,210.3 
		148.1,209.8 147.8,209.4 147.5,208.9 147.3,208.5 147,208 146.7,207.6 146.4,207.1 146.2,206.7 145.6,206.7 145.1,206.7 
		144.6,206.7 144.1,206.7 143.5,206.7 143,206.7 142.5,206.7 142,206.7 141.5,206.7 140.9,206.7 140.4,206.7 139.9,206.7 
		139.4,206.7 138.8,206.7 138.4,206.7 137.8,206.7 137.3,206.7 136.8,206.7 136.3,206.7 135.7,206.7 135.2,206.7 135.2,207.2 
		135.2,207.8 135.2,208.3 135.2,208.8 135.2,209.4 135.2,209.9 135.2,210.4 135.2,211 135.2,211.5 135.2,212 135.2,212.6 
		135.2,213.1 135.2,213.6 135.2,214.2 135.2,214.7 135.2,215.3 135.2,215.8 135.2,216.3 135.2,216.8 135.2,217.3 135.2,217.9 
		135.2,218.4 135.2,219 135.2,219.5 135.2,220 135.2,220.6 135.2,221.1 135.2,221.6 135.2,222.2 135.2,222.7 135.2,223.2 
		135.2,223.8 135.2,224.3 135.2,224.9 135.2,225.4 135.2,225.9 135.2,226.5 135.2,227 135.2,227.5 135.2,228.1 135.2,228.6 
		135.2,229.1 135.2,229.7 135.2,230.2 135.2,230.8 135.2,231.3 135.2,231.8 135.2,232.4 135.2,232.9 135.2,233.4 135.2,234 
		135.2,234.5 135.2,235 135.2,235.6 135.2,236.1 135.2,236.6 135.2,237.1 135.2,237.7 135.2,238.2 135.2,238.7 135.2,239.3 
		135.2,239.8 135.2,240.4 135.2,240.9 135.2,241.4 135.2,242 135.2,242.5 135.2,243 135.2,243.6 135.2,244.1 135.2,244.6 
		135.2,245.2 135.2,245.7 135.7,245.7 136.3,245.7 136.8,245.7 137.3,245.7 137.9,245.7 138.4,245.7 139,245.7 139.5,245.7 
		140,245.7 140.6,245.7 141.1,245.7 141.6,245.7 142.2,245.7 142.7,245.7 143.2,245.7 143.8,245.7 144.3,245.7 144.8,245.7 
		145.4,245.7 145.4,245.2 145.4,244.6 145.4,244.1 145.4,243.6 145.4,243 145.4,242.5 145.4,242 145.4,241.4 145.4,240.9 
		145.4,240.4 145.4,239.9 145.4,239.3 145.4,238.8 145.4,238.3 145.4,237.7 145.4,237.2 145.4,236.6 145.4,236.1 145.4,235.6 
		145.4,235 145.4,234.5 145.4,234 145.4,233.4 145.4,232.9 145.4,232.3 145.4,231.8 145.4,231.3 145.4,230.7 145.4,230.2 
		145.4,229.7 145.4,229.1 145.4,228.6 145.4,228.1 145.4,227.6 145.4,227 145.4,226.5 145.4,226 145.4,225.4 145.4,224.9 
		145.4,224.3 145.4,223.8 145.4,223.3 145.4,222.7 145.7,223.2 145.9,223.7 146.3,224.1 146.5,224.6 146.8,225 147.1,225.5 
		147.4,225.9 147.7,226.4 148,226.8 148.3,227.3 148.6,227.7 148.9,228.2 149.2,228.6 149.5,229.1 149.8,229.6 150.1,230 
		150.4,230.5 150.7,231 151,231.4 151.3,231.9 151.5,232.3 151.9,232.8 152.1,233.2 152.5,233.7 152.7,234.1 153.1,234.6 153.3,235 
		153.6,235.5 153.9,236 154.2,236.4 154.5,236.9 154.8,237.4 155.1,237.8 155.4,238.3 155.6,238.3 155.9,237.8 156.2,237.4 
		156.5,236.9 156.8,236.5 157,236 157.4,235.6 157.6,235.1 157.9,234.7 158.2,234.2 158.5,233.8 158.8,233.4 159.1,232.9 
		159.4,232.5 159.7,232 159.9,231.5 160.3,231.1 160.5,230.7 160.8,230.2 161.1,229.8 161.4,229.3 161.7,228.9 162,228.4 162.3,228 
		162.6,227.5 162.9,227.1 163.1,226.7 163.5,226.2 163.7,225.7 164,225.3 164.3,224.9 164.6,224.4 164.9,224 165.2,223.5 
		165.5,223.1 165.8,222.6 165.8,223.2 165.8,223.7 165.8,224.2 165.8,224.8 165.8,225.3 165.8,225.8 165.8,226.4 165.8,226.9 
		165.8,227.5 165.8,228 165.8,228.5 165.8,229.1 165.8,229.6 165.8,230.1 165.8,230.7 165.8,231.2 165.8,231.8 165.8,232.3 
		165.8,232.8 165.8,233.4 165.8,233.9 165.8,234.4 165.8,235 165.8,235.5 165.8,236.1 165.8,236.6 165.8,237.1 165.8,237.7 
		165.8,238.2 165.8,238.7 165.8,239.3 165.8,239.8 165.8,240.4 165.8,240.9 165.8,241.4 165.8,242 165.8,242.5 165.8,243 
		165.8,243.6 165.8,244.1 165.8,244.6 165.8,245.2 165.8,245.7 166.3,245.7 166.8,245.7 167.4,245.7 167.9,245.7 168.5,245.7 
		169,245.7 169.5,245.7 170.1,245.7 170.6,245.7 171.2,245.7 171.7,245.7 172.3,245.7 172.8,245.7 173.3,245.7 173.9,245.7 
		174.5,245.7 175,245.7 175.5,245.7 176.1,245.7 176.1,245.2 176.1,244.6 176.1,244.1 176.1,243.6 176.1,243 176.1,242.5 176.1,242 
		176.1,241.4 176.1,240.9 176.1,240.4 176.1,239.8 176.1,239.3 176.1,238.7 176.1,238.2 176.1,237.7 176.1,237.1 176.1,236.6 
		176.1,236.1 176.1,235.6 176.1,235 176.1,234.5 176.1,234 176.1,233.4 176.1,232.9 176.1,232.4 176.1,231.8 176.1,231.3 
		176.1,230.8 176.1,230.2 176.1,229.7 176.1,229.1 176.1,228.6 176.1,228.1 176.1,227.5 176.1,227 176.1,226.5 176.1,225.9 
		176.1,225.4 176.1,224.9 176.1,224.3 176.1,223.8 176.1,223.2 176.1,222.7 176.1,222.2 176.1,221.6 176.1,221.1 176.1,220.6 
		176.1,220 176.1,219.5 176.1,219 176.1,218.4 176.1,217.9 176.1,217.3 176.1,216.8 176.1,216.3 176.1,215.8 176.1,215.3 
		176.1,214.7 176.1,214.2 176.1,213.6 176.1,213.1 176.1,212.6 176.1,212 176.1,211.5 176.1,211 176.1,210.4 176.1,209.9 
		176.1,209.4 176.1,208.8 176.1,208.3 176.1,207.8 176.1,207.2 176.1,206.7 175.5,206.7 	"/>
</g>
<g>
	<path class="st1" d="M130.4,244.8l-0.2-0.5l-0.2-0.5l-0.2-0.5l-0.2-0.5l-0.2-0.5l-0.2-0.5l-0.2-0.5l-0.2-0.5l-0.2-0.5l-0.2-0.5
		l-0.2-0.5l-0.2-0.5l-0.2-0.5l-0.2-0.6l-0.2-0.5l-0.2-0.5l-0.2-0.5l-0.2-0.5l-0.2-0.5l-0.2-0.5l-0.2-0.5l-0.2-0.5l-0.2-0.5l-0.2-0.5
		l-0.2-0.5l-0.2-0.5l-0.2-0.5l-0.2-0.5l-0.2-0.5l-0.2-0.5l-0.2-0.5l-0.2-0.5l-0.2-0.5l-0.2-0.5l-0.2-0.5L123,227l-0.2-0.5l-0.2-0.5
		l-0.1-0.4l-0.2-0.5l-0.2-0.5l-0.2-0.5l-0.2-0.5l-0.2-0.5l-0.2-0.5l-0.2-0.5l-0.2-0.5l-0.2-0.5l-0.2-0.5l-0.2-0.5l-0.2-0.5l-0.2-0.5
		l-0.2-0.5l-0.2-0.5l-0.2-0.5l-0.2-0.5l-0.2-0.5l-0.2-0.5l-0.2-0.5l-0.2-0.5l-0.2-0.5l-0.2-0.5l-0.2-0.5l-0.2-0.5l-0.2-0.5l-0.2-0.5
		l-0.2-0.5l-0.2-0.5l-0.2-0.5l-0.2-0.5l-0.2-0.5l-0.2-0.5l-0.2-0.5l-0.1-0.4L115,208l-0.2-0.5l-0.2-0.5l-0.2-0.5h-0.5h-0.5h-0.6
		h-0.5h-0.5h-0.5h-0.5h-0.5h-0.5h-0.5h-0.5h-0.5h-0.5h-0.5h-0.5H106h-0.5H105h-0.5l-0.2,0.5l-0.2,0.5l-0.2,0.5l-0.2,0.5l-0.2,0.5
		l-0.2,0.5l-0.2,0.5l-0.2,0.5l-0.2,0.5l-0.2,0.5l-0.2,0.5l-0.2,0.5l-0.2,0.5l-0.2,0.5l-0.2,0.5l-0.2,0.5l-0.2,0.5l-0.2,0.5l-0.2,0.5
		l-0.2,0.5l-0.2,0.5l-0.2,0.5l-0.2,0.5l-0.2,0.5l-0.2,0.5l-0.2,0.5l-0.2,0.5l-0.2,0.5l-0.2,0.5l-0.2,0.5l-0.2,0.5l-0.2,0.5l-0.2,0.5
		l-0.2,0.5l-0.2,0.5l-0.2,0.5l-0.2,0.5l-0.2,0.5l-0.2,0.5l-0.2,0.5l-0.2,0.5l-0.2,0.5l-0.2,0.5l-0.2,0.5l-0.2,0.5l-0.2,0.5l-0.2,0.5
		l-0.2,0.5l-0.2,0.5l-0.2,0.5l-0.2,0.5l-0.2,0.5l-0.2,0.5l-0.2,0.5l-0.2,0.5l-0.2,0.5l-0.2,0.5l-0.2,0.5l-0.2,0.5l-0.2,0.5l-0.2,0.5
		l-0.2,0.5l-0.2,0.5l-0.2,0.5l-0.2,0.5l-0.1,0.3l-0.2,0.5l-0.2,0.5l-0.2,0.5l-0.2,0.5l-0.2,0.5l-0.2,0.5l-0.2,0.5l-0.2,0.5l-0.2,0.5
		l-0.2,0.5l-0.2,0.5l-0.2,0.5l-0.2,0.5l-0.2,0.5h0.5h0.5h0.5H90h0.6h0.5h0.5h0.5h0.5h0.5h0.5h0.5h0.5h0.5H96h0.5H97h0.5h0.5h0.5
		l0.2-0.5l0.2-0.5l0.2-0.5l0.2-0.5l0.2-0.5l0.2-0.5l0.2-0.5l0.2-0.5l0.2-0.5l0.2-0.5l0.2-0.5l0.2-0.5l0.2-0.5l0.2-0.5l0.2-0.5h0.5
		h0.5h0.5h0.5h0.5h0.5h0.5h0.5h0.5h0.5h0.5h0.5h0.5h0.5h0.5h0.5h0.5h0.5h0.6h0.5h0.5h0.5h0.5h0.5h0.5h0.5h0.5h0.5h0.5l0.2,0.5
		l0.2,0.5l0.2,0.5l0.2,0.5l0.2,0.5l0.2,0.5l0.2,0.5l0.2,0.5l0.2,0.5l0.2,0.5l0.2,0.5l0.2,0.5l0.2,0.5l0.2,0.5l0.2,0.5h0.5h0.5h0.5
		h0.5h0.5h0.5h0.5h0.5h0.5h0.5h0.5h0.5h0.5h0.5h0.5h0.5h0.5h0.5h0.5h0.5h0.5l-0.2-0.5L130.4,244.8z M113.2,230.1h-0.5h-0.5h-0.5
		h-0.5h-0.5H110h-0.5H109h-0.5H108h-0.5h-0.5h-0.5h-0.5h-0.5h-0.5l0.2-0.5l0.2-0.5l0.2-0.5l0.2-0.5l0.2-0.5l0.2-0.5l0.2-0.5l0.2-0.5
		l0.2-0.5l0.2-0.5l0.2-0.5l0.2-0.5l0.2-0.5l0.2-0.5l0.2-0.5l0.2-0.5l0.2-0.5l0.2-0.5l0.2-0.5l0.2-0.5l0.2-0.5l0.2-0.5l0.2-0.5
		l0.2,0.5l0.2,0.5l0.2,0.5l0.2,0.5l0.2,0.5l0.2,0.5l0.2,0.5l0.2,0.5l0.2,0.5l0.2,0.5l0.2,0.5l0.2,0.5l0.2,0.5l0.2,0.5l0.2,0.5
		l0.2,0.5l0.2,0.5l0.2,0.5l0.2,0.5l0.2,0.5l0.2,0.5l0.2,0.5l0.2,0.5L113.2,230.1L113.2,230.1z"/>
</g>
<g>
	<polygon class="st1" points="82.9,223 82.3,223 81.8,223 81.3,223 80.7,223 80.2,223 79.7,223 79.1,223 78.6,223 78,223 77.5,223 
		77,223 76.5,223 75.9,223 75.4,223 74.9,223 74.3,223 73.8,223 73.2,223 72.7,223 72.2,223 71.6,223 71.1,223 70.6,223 70,223 
		69.5,223 69,223 68.4,223 67.9,223 67.4,223 66.8,223 66.3,223 66.3,223.5 66.3,224 66.3,224.5 66.3,225.1 66.3,225.6 66.3,226.1 
		66.3,226.6 66.3,227.2 66.3,227.7 66.3,228.2 66.3,228.7 66.3,229.2 66.3,229.8 66.3,230.3 66.3,230.8 66.8,230.8 67.3,230.8 
		67.9,230.8 68.4,230.8 68.9,230.8 69.4,230.8 69.9,230.8 70.5,230.8 71,230.8 71.5,230.8 72,230.8 72.6,230.8 73.1,230.8 
		73.6,230.8 74.1,230.8 74.1,231.3 74.1,231.9 74.1,232.4 74.1,233 74.1,233.5 74.1,234.1 74.1,234.6 74.1,235.2 74.1,235.7 
		73.7,236 73.3,236.2 72.8,236.4 72.4,236.6 71.9,236.8 71.4,236.9 70.9,237.1 70.4,237.2 69.8,237.3 69.3,237.4 68.7,237.4 
		68.1,237.5 67.5,237.5 66.9,237.5 66.3,237.4 65.8,237.4 65.2,237.2 64.7,237.1 64.2,237 63.6,236.8 63.1,236.6 62.7,236.4 
		62.2,236.2 61.8,235.9 61.3,235.6 60.9,235.3 60.5,235 60.1,234.7 59.8,234.3 59.4,233.9 59.1,233.5 58.8,233.1 58.5,232.7 
		58.2,232.3 58,231.8 57.8,231.3 57.5,230.8 57.4,230.3 57.2,229.8 57.1,229.4 57,228.9 56.9,228.4 56.9,227.9 56.8,227.4 
		56.7,226.8 56.7,226.3 56.7,226.2 56.7,225.6 56.8,225.1 56.9,224.5 57,223.9 57.1,223.5 57.2,222.9 57.3,222.4 57.5,221.9 
		57.7,221.4 57.9,220.9 58.2,220.5 58.4,220 58.7,219.6 59,219.2 59.3,218.8 59.7,218.4 60,218 60.4,217.7 60.8,217.4 61.1,217.1 
		61.6,216.8 62,216.5 62.4,216.3 62.9,216.1 63.4,215.8 63.8,215.7 64.3,215.5 64.8,215.4 65.3,215.3 65.8,215.3 66.4,215.2 
		66.9,215.2 67.5,215.2 68.1,215.3 68.7,215.3 69.2,215.4 69.7,215.5 70.3,215.6 70.7,215.7 71.2,215.8 71.7,216 72.1,216.2 
		72.6,216.4 73,216.6 73.5,216.9 73.9,217.1 74.3,217.4 74.7,217.7 75.2,218 75.6,218.3 76,218.6 76.5,219 76.8,218.5 77.1,218.1 
		77.5,217.7 77.8,217.3 78.2,216.9 78.5,216.5 78.9,216.1 79.2,215.6 79.6,215.2 79.9,214.8 80.2,214.4 80.6,214 80.9,213.6 
		81.2,213.2 81.6,212.7 81.9,212.3 82.3,211.9 82.6,211.5 82.2,211.2 81.7,210.8 81.3,210.5 80.9,210.2 80.5,209.9 80,209.6 
		79.6,209.3 79.1,209 78.6,208.8 78.2,208.5 77.7,208.3 77.3,208 76.8,207.8 76.3,207.6 75.8,207.4 75.3,207.2 74.9,207 74.4,206.9 
		73.9,206.8 73.5,206.7 73,206.6 72.5,206.5 72,206.3 71.4,206.2 70.9,206.2 70.4,206.1 69.8,206 69.3,206 68.7,206 68.1,205.9 
		67.5,205.9 66.9,205.9 66.4,205.9 65.8,205.9 65.3,206 64.8,206 64.2,206.1 63.7,206.1 63.1,206.2 62.6,206.3 62.1,206.4 
		61.6,206.6 61.1,206.7 60.6,206.8 60.1,206.9 59.6,207.2 59.1,207.3 58.7,207.5 58.1,207.8 57.7,208 57.2,208.2 56.7,208.4 
		56.2,208.7 55.7,209 55.3,209.3 54.9,209.5 54.4,209.8 54,210.1 53.6,210.4 53.2,210.7 52.8,211.1 52.4,211.4 52,211.8 51.7,212.2 
		51.3,212.6 51,213 50.7,213.3 50.3,213.8 50,214.2 49.7,214.6 49.4,215 49.2,215.5 48.9,215.9 48.6,216.3 48.4,216.8 48.2,217.3 
		47.9,217.8 47.7,218.3 47.5,218.7 47.3,219.3 47.1,219.8 47,220.3 46.8,220.8 46.7,221.3 46.5,221.9 46.4,222.3 46.4,222.9 
		46.3,223.4 46.2,224 46.2,224.5 46.2,225.1 46.1,225.7 46.1,226.2 46.1,226.3 46.1,226.8 46.1,227.4 46.2,228 46.2,228.5 46.3,229 
		46.3,229.5 46.4,230.1 46.5,230.5 46.6,231.1 46.8,231.6 46.9,232.1 47,232.6 47.1,233.1 47.3,233.5 47.5,234 47.7,234.5 
		47.9,234.9 48.2,235.4 48.4,235.9 48.6,236.3 48.9,236.8 49.2,237.2 49.4,237.7 49.7,238.1 50,238.5 50.3,238.9 50.7,239.3 
		51,239.7 51.3,240.1 51.7,240.5 52.1,240.8 52.5,241.2 52.8,241.5 53.2,241.8 53.7,242.1 54.1,242.4 54.5,242.8 54.9,243 
		55.4,243.3 55.8,243.6 56.3,243.8 56.7,244.1 57.2,244.3 57.7,244.5 58.2,244.8 58.7,245 59.2,245.1 59.7,245.3 60.2,245.5 
		60.7,245.6 61.2,245.8 61.7,245.9 62.2,246 62.7,246.1 63.3,246.2 63.8,246.3 64.3,246.3 64.9,246.4 65.5,246.4 66,246.5 
		66.5,246.5 67.1,246.5 67.7,246.5 68.3,246.5 68.9,246.4 69.4,246.4 70,246.3 70.5,246.3 71.1,246.2 71.6,246.1 72.2,246 
		72.7,245.9 73.2,245.8 73.7,245.7 74.2,245.6 74.7,245.4 75.2,245.2 75.7,245.1 76.2,244.9 76.7,244.7 77.2,244.5 77.7,244.3 
		78.2,244.1 78.7,243.8 79.2,243.6 79.7,243.3 80.1,243 80.6,242.8 81,242.5 81.5,242.2 81.9,241.9 82.3,241.6 82.7,241.3 83.1,241 
		83.6,240.7 83.9,240.4 83.9,239.9 83.9,239.3 83.9,238.8 83.9,238.3 83.9,237.8 83.9,237.2 83.9,236.7 83.9,236.2 83.9,235.6 
		83.9,235.2 83.9,234.6 83.9,234.1 83.9,233.5 83.9,233 83.9,232.5 83.9,231.9 83.9,231.5 83.9,230.9 83.9,230.4 83.9,229.8 
		83.9,229.3 83.9,228.8 83.9,228.2 83.9,227.8 83.9,227.2 83.9,226.7 83.9,226.1 83.9,225.6 83.9,225.1 83.9,224.6 83.9,224 
		83.9,223.5 83.9,223 83.4,223 	"/>
</g>
</svg>
