<?xml version="1.0" encoding="utf-8"?>
<!-- Generator: Adobe Illustrator 22.1.0, SVG Export Plug-In . SVG Version: 6.00 Build 0)  -->
<svg version="1.1"
	 id="svg16" inkscape:version="0.92.4 (5da689c313, 2019-01-14)" sodipodi:docname="РёРіСЂРѕРІС‹Рµ СЃРµСЂРІРёСЃС‹_1.svg" xmlns:cc="http://creativecommons.org/ns#" xmlns:dc="http://purl.org/dc/elements/1.1/" xmlns:inkscape="http://www.inkscape.org/namespaces/inkscape" xmlns:rdf="http://www.w3.org/1999/02/22-rdf-syntax-ns#" xmlns:sodipodi="http://sodipodi.sourceforge.net/DTD/sodipodi-0.dtd" xmlns:svg="http://www.w3.org/2000/svg"
	 xmlns="http://www.w3.org/2000/svg" xmlns:xlink="http://www.w3.org/1999/xlink" x="0px" y="0px" viewBox="0 0 298.2 298.2"
	 style="enable-background:new 0 0 298.2 298.2;" xml:space="preserve">
<style type="text/css">
	.st0{fill:url(#bg_1_);}
	.st1{fill:url(#SVGID_1_);}
	.st2{fill:url(#SVGID_2_);}
</style>
<sodipodi:namedview  bordercolor="#666666" borderopacity="1" fit-margin-bottom="0" fit-margin-left="0" fit-margin-right="0" fit-margin-top="0" gridtolerance="10" guidetolerance="10" id="namedview18" inkscape:current-layer="svg16" inkscape:cx="198.60516" inkscape:cy="199.14576" inkscape:pageopacity="0" inkscape:pageshadow="2" inkscape:window-height="707" inkscape:window-maximized="0" inkscape:window-width="1118" inkscape:window-x="0" inkscape:window-y="0" inkscape:zoom="0.59470518" objecttolerance="10" pagecolor="#ffffff" showgrid="false">
	</sodipodi:namedview>
<g id="_x40_2x">
	<g id="Camera">
		
			<linearGradient id="bg_1_" gradientUnits="userSpaceOnUse" x1="137.1007" y1="162.1417" x2="137.1007" y2="159.6569" gradientTransform="matrix(120 0 0 -120 -16303 19457)">
			<stop  offset="0" style="stop-color:#E3E2E4"/>
			<stop  offset="1" style="stop-color:#9DA0A4"/>
		</linearGradient>
		<path id="bg" class="st0" d="M69.6,0h159c38.4,0,69.6,31.1,69.6,69.6v159c0,38.4-31.1,69.6-69.6,69.6h-159
			C31.1,298.2,0,267,0,228.6v-159C0,31.1,31.1,0,69.6,0z"/>
	</g>
</g>
<path d="M89.2,190.9H54.2c-2.8,0-5,2.2-5,5v25c0,2.6,2.3,5,5,5h35.1v16.5H45.5c-7,0-12.8-5.8-12.8-12.9v-42.5
	c0-7,5.8-12.8,12.9-12.8h43.6C89.2,174.3,89.2,190.9,89.2,190.9z"/>
<path d="M101.8,144.5c0,7.3-5.9,13.1-13.1,13.1H32.6v-16.9h47.3c2.8,0,5-2.2,5-5V80c0-2.8-2.2-5-5-5l0,0H54.6
	c-2.8-0.1-5.1,2.1-5.1,4.9c0,0,0,0.1,0,0.1v25.3c0,2.9,2.3,5,5,5h20.3v16.9H45.7c-7.3,0-13.1-5.8-13.1-13V71.2c0-7.1,5.9-13,13.1-13
	h42.8c7.3,0,13.1,5.9,13.1,13v73.4H101.8z"/>
<path d="M267.1,242.5h-16.5v-51.6H239c-2.8,0-5,2.2-5,5v46.6h-16.7v-51.6h-11.6c-2.8,0-5,2.2-5,5v46.6H184v-55.4
	c0-7,5.8-12.8,12.9-12.8h70.3V242.5z"/>
<path d="M267.3,144.5c0,7.3-5.9,13.1-13.1,13.1H198v-16.9h47.3c2.8,0,5-2.2,5-5V80c0-2.8-2.2-5-5-5h-25.4c-2.8,0-5,2.2-5,5v25.3
	c0,2.9,2.3,5,5,5h20.3v16.9h-28.9c-7.3,0-13.1-5.8-13.1-13V71.2c0-7.1,5.9-13,13.1-13h43c7.3,0,13.1,5.9,13.1,13v73.4H267.3z"/>
<path d="M171.5,58.1h-43.1c-7.3,0-13,5.9-13,13v43.1c0,7.3,5.8,13,13,13h43.1c7.1,0,13-5.8,13-13V71.2
	C184.5,64,178.6,58.1,171.5,58.1"/>
<linearGradient id="SVGID_1_" gradientUnits="userSpaceOnUse" x1="132.2671" y1="92.7526" x2="167.7068" y2="92.7526">
	<stop  offset="0" style="stop-color:#E3E2E4"/>
	<stop  offset="1" style="stop-color:#9DA0A4"/>
</linearGradient>
<path class="st1" d="M167.7,80v25.3c0,2.8-2.2,5-5,5h-25.4c-2.8,0-5-2.2-5-5V80.2c0-2.8,2.1-5,5-5h25.2c2.9,0,5,2.3,5,5L167.7,80z"
	/>
<path d="M157.8,174.3h-42.5c-7.1,0-12.9,5.8-12.9,12.8v42.5c0,7.1,5.8,12.9,12.9,12.9h42.5c7.1,0,12.9-5.8,12.9-12.9v-42.5
	C170.7,180.1,165,174.3,157.8,174.3"/>
<linearGradient id="SVGID_2_" gradientUnits="userSpaceOnUse" x1="119.118" y1="208.4012" x2="154.0568" y2="208.4012">
	<stop  offset="0" style="stop-color:#E3E2E4"/>
	<stop  offset="1" style="stop-color:#9DA0A4"/>
</linearGradient>
<path class="st2" d="M153.9,195.9v25c0,2.8-2.2,5-5,5v-0.1h-24.8c-2.8,0-5-2.2-5-5v-24.9c0-2.8,2.2-5,5-5h25c2.7,0,5,2.3,5,5
	L153.9,195.9z"/>
</svg>
