<?xml version="1.0" encoding="utf-8"?>
<!-- Generator: Adobe Illustrator 22.1.0, SVG Export Plug-In . SVG Version: 6.00 Build 0)  -->
<svg version="1.1"
	 id="svg16" inkscape:version="0.92.4 (5da689c313, 2019-01-14)" sodipodi:docname="РёРіСЂРѕРІС‹Рµ СЃРµСЂРІРёСЃС‹_1.svg" xmlns:cc="http://creativecommons.org/ns#" xmlns:dc="http://purl.org/dc/elements/1.1/" xmlns:inkscape="http://www.inkscape.org/namespaces/inkscape" xmlns:rdf="http://www.w3.org/1999/02/22-rdf-syntax-ns#" xmlns:sodipodi="http://sodipodi.sourceforge.net/DTD/sodipodi-0.dtd" xmlns:svg="http://www.w3.org/2000/svg"
	 xmlns="http://www.w3.org/2000/svg" xmlns:xlink="http://www.w3.org/1999/xlink" x="0px" y="0px" viewBox="0 0 298.2 298.2"
	 style="enable-background:new 0 0 298.2 298.2;" xml:space="preserve">
<style type="text/css">
	.st0{fill:#EF9C07;}
	.st1{fill:#EFA30A;}
</style>
<sodipodi:namedview  bordercolor="#666666" borderopacity="1" fit-margin-bottom="0" fit-margin-left="0" fit-margin-right="0" fit-margin-top="0" gridtolerance="10" guidetolerance="10" id="namedview18" inkscape:current-layer="svg16" inkscape:cx="198.60516" inkscape:cy="199.14576" inkscape:pageopacity="0" inkscape:pageshadow="2" inkscape:window-height="707" inkscape:window-maximized="0" inkscape:window-width="1118" inkscape:window-x="0" inkscape:window-y="0" inkscape:zoom="0.59470518" objecttolerance="10" pagecolor="#ffffff" showgrid="false">
	</sodipodi:namedview>
<path class="st0" d="M134,101.4c-10.3,0-30.3,0-30.3,0l6.6-33.5c0,0,27.2,0,30,0c8.9,0,17.4,6.6,15,18.6
	C152.9,98.4,143.2,101.4,134,101.4z"/>
<path class="st1" d="M237.2,0H61C27.4,0,0,27.4,0,61v176.2c0,33.6,27.4,61,61,61h176.2c33.6,0,61-27.4,61-61V61
	C298.2,27.4,270.8,0,237.2,0z M118.9,122c-16.2,0-19.4,0-19.4,0L89,169.4H60l26.2-122c0,0,27.6,0,56.1,0c24.8,0,42.3,5.8,40.3,33.5
	c-1.8,25.5-18.3,30.2-18.3,30.2s5.4,9.8,3.5,28.4c-2,19.6,0.2,26.8,2,30h-33.3c0,0-1.9-4-0.9-11.8C138.4,134.4,135.1,122,118.9,122z
	 M208.7,208.9l8.1,41.9l-32.7-25.4l-41.8,25.4l19.7-43.3L135.5,183h40.7l22.6-40.7l6.4,40.5H244L208.7,208.9z"/>
</svg>
